<?xml version="1.0" encoding="UTF-8" standalone="no"?>
<!-- Created with Inkscape (http://www.inkscape.org/) -->
<svg
   xmlns:dc="http://purl.org/dc/elements/1.1/"
   xmlns:cc="http://web.resource.org/cc/"
   xmlns:rdf="http://www.w3.org/1999/02/22-rdf-syntax-ns#"
   xmlns:svg="http://www.w3.org/2000/svg"
   xmlns="http://www.w3.org/2000/svg"
   xmlns:xlink="http://www.w3.org/1999/xlink"
   xmlns:sodipodi="http://sodipodi.sourceforge.net/DTD/sodipodi-0.dtd"
   xmlns:inkscape="http://www.inkscape.org/namespaces/inkscape"
   width="48px"
   height="48px"
   id="svg3643"
   sodipodi:version="0.32"
   inkscape:version="0.45"
   sodipodi:docname="beaver2.5.svg"
   sodipodi:docbase="/home/vinay"
   inkscape:output_extension="org.inkscape.output.svg.inkscape"
   sodipodi:modified="true">
  <defs
     id="defs3645">
    <linearGradient
       inkscape:collect="always"
       id="linearGradient3322">
      <stop
         style="stop-color:#67423a;stop-opacity:1"
         offset="0"
         id="stop3324" />
      <stop
         style="stop-color:#b78c76;stop-opacity:1"
         offset="1"
         id="stop3326" />
    </linearGradient>
    <radialGradient
       inkscape:collect="always"
       xlink:href="#linearGradient3322"
       id="radialGradient3999"
       gradientUnits="userSpaceOnUse"
       gradientTransform="matrix(-0.1897968,0.1529596,-0.1556051,-0.1930795,83.669167,37.088851)"
       cx="170.42699"
       cy="206.58701"
       fx="170.42699"
       fy="206.58701"
       r="146.45247" />
    <linearGradient
       inkscape:collect="always"
       id="linearGradient3330">
      <stop
         style="stop-color:#242424;stop-opacity:1"
         offset="0"
         id="stop3332" />
      <stop
         style="stop-color:#78514a;stop-opacity:1"
         offset="1"
         id="stop3334" />
    </linearGradient>
    <linearGradient
       inkscape:collect="always"
       xlink:href="#linearGradient3330"
       id="linearGradient4004"
       gradientUnits="userSpaceOnUse"
       gradientTransform="matrix(0.1150823,0,0,0.1150823,-3.8058124,-1.1769792e-2)"
       x1="247.04082"
       y1="186.59187"
       x2="100.78832"
       y2="473.43979" />
    <linearGradient
       inkscape:collect="always"
       id="linearGradient3243">
      <stop
         style="stop-color:#d4d4d4;stop-opacity:1"
         offset="0"
         id="stop3245" />
      <stop
         style="stop-color:#ffffff;stop-opacity:1"
         offset="1"
         id="stop3247" />
    </linearGradient>
    <linearGradient
       inkscape:collect="always"
       xlink:href="#linearGradient3243"
       id="linearGradient4025"
       gradientUnits="userSpaceOnUse"
       gradientTransform="matrix(0.1226743,0,0,0.1226743,-6.3246725,-6.1736398)"
       x1="171.66518"
       y1="265.83499"
       x2="157.65192"
       y2="402.79227" />
    <linearGradient
       inkscape:collect="always"
       id="linearGradient3235">
      <stop
         style="stop-color:#d4d4d4;stop-opacity:1"
         offset="0"
         id="stop3237" />
      <stop
         style="stop-color:#ffffff;stop-opacity:1"
         offset="1"
         id="stop3239" />
    </linearGradient>
    <linearGradient
       inkscape:collect="always"
       xlink:href="#linearGradient3235"
       id="linearGradient4027"
       gradientUnits="userSpaceOnUse"
       gradientTransform="matrix(0.1226743,0,0,0.1226743,-6.3246725,-6.1736398)"
       x1="234.1702"
       y1="265.14224"
       x2="212.04684"
       y2="419.34897" />
    <linearGradient
       inkscape:collect="always"
       id="linearGradient3314">
      <stop
         style="stop-color:#754e3a;stop-opacity:1"
         offset="0"
         id="stop3316" />
      <stop
         style="stop-color:#caa695;stop-opacity:1"
         offset="1"
         id="stop3318" />
    </linearGradient>
    <radialGradient
       inkscape:collect="always"
       xlink:href="#linearGradient3314"
       id="radialGradient3985"
       gradientUnits="userSpaceOnUse"
       gradientTransform="matrix(0.2319821,-5.9562512e-2,5.1725967e-2,0.2014606,-39.738735,-13.672634)"
       cx="192.8934"
       cy="257.81207"
       fx="192.8934"
       fy="257.81207"
       r="153.42752" />
    <linearGradient
       inkscape:collect="always"
       id="linearGradient3426">
      <stop
         style="stop-color:#220e0b;stop-opacity:1"
         offset="0"
         id="stop3428" />
      <stop
         style="stop-color:#451917;stop-opacity:1"
         offset="1"
         id="stop3430" />
    </linearGradient>
    <radialGradient
       inkscape:collect="always"
       xlink:href="#linearGradient3426"
       id="radialGradient3432"
       cx="18.671024"
       cy="23.475927"
       fx="18.671024"
       fy="23.475927"
       r="7.3296888"
       gradientTransform="matrix(1.5555835,0.7959086,-0.6214503,1.2146091,3.5502271,-20.116793)"
       gradientUnits="userSpaceOnUse" />
  </defs>
  <sodipodi:namedview
     id="base"
     pagecolor="#ffffff"
     bordercolor="#666666"
     borderopacity="1.0"
     inkscape:pageopacity="0.0"
     inkscape:pageshadow="2"
     inkscape:zoom="1"
     inkscape:cx="24"
     inkscape:cy="21.154701"
     inkscape:current-layer="layer1"
     showgrid="false"
     inkscape:grid-bbox="true"
     inkscape:document-units="px"
     showborder="true"
     inkscape:showpageshadow="false"
     showguides="true"
     inkscape:guide-bbox="true"
     inkscape:window-width="918"
     inkscape:window-height="700"
     inkscape:window-x="49"
     inkscape:window-y="193" />
  <metadata
     id="metadata3648">
    <rdf:RDF>
      <cc:Work
         rdf:about="">
        <dc:format>image/svg+xml</dc:format>
        <dc:type
           rdf:resource="http://purl.org/dc/dcmitype/StillImage" />
      </cc:Work>
    </rdf:RDF>
  </metadata>
  <g
     id="layer1"
     inkscape:label="Layer 1"
     inkscape:groupmode="layer">
    <path
       sodipodi:nodetypes="czcc"
       id="path3992"
       d="M 38.730397,21.40352 C 39.924707,29.355701 28.366537,38.582781 21.249667,39.112131 C 14.045577,39.64148 5.8029176,29.1655 5.9603376,21.25486 C 8.7121076,16.64271 29.677697,16.25589 38.730397,21.40352 z "
       style="opacity:1;fill:url(#radialGradient3999);fill-opacity:1;fill-rule:evenodd;stroke:#4d312b;stroke-width:1;stroke-linecap:round;stroke-linejoin:miter;stroke-miterlimit:4;stroke-dasharray:none;stroke-dashoffset:0;stroke-opacity:1;display:inline"
       inkscape:export-filename="/home/vinay/beaver/icons/beaver6.1-48.png"
       inkscape:export-xdpi="90"
       inkscape:export-ydpi="90" />
    <path
       style="fill:url(#linearGradient4004);fill-opacity:1;fill-rule:evenodd;stroke:none;stroke-width:6.63726902;stroke-linecap:butt;stroke-linejoin:miter;stroke-miterlimit:4;stroke-dasharray:none;stroke-opacity:1;display:inline"
       d="M 8.2114076,27.44248 C 8.2718676,24.79064 17.726987,24.7483 26.142147,25.52382 C 34.486467,26.29934 39.327317,21.62083 36.546997,25.627011 C 33.789907,29.59973 31.218537,33.01953 26.615117,35.97422 C 21.910337,38.99399 9.5693776,32.574431 8.2114076,27.44248 z "
       id="path4002"
       sodipodi:nodetypes="czzzc"
       inkscape:export-filename="/home/vinay/beaver/icons/beaver6.1-48.png"
       inkscape:export-xdpi="90"
       inkscape:export-ydpi="90" />
    <path
       style="fill:url(#linearGradient4025);fill-opacity:1;fill-rule:evenodd;stroke:#878787;stroke-width:1;stroke-linecap:round;stroke-linejoin:miter;stroke-miterlimit:4;stroke-dasharray:none;stroke-dashoffset:0;stroke-opacity:1;display:inline"
       d="M 13.188057,27.19087 L 16.052457,26.81813 C 17.576517,26.81813 18.808967,27.06959 18.556847,28.27689 C 17.647067,30.76727 17.256587,37.506401 17.981397,40.99473 C 18.048557,41.84562 17.740927,42.73862 16.216867,42.73862 L 12.043637,42.42265 C 11.444447,42.39182 11.555687,42.258891 11.368397,41.526551 C 10.883177,38.64411 10.213957,32.850781 12.410007,28.00808 C 12.468677,27.72745 12.486057,27.19087 13.188057,27.19087 z "
       id="path4021"
       sodipodi:nodetypes="ccccccccc"
       inkscape:export-filename="/home/vinay/beaver/icons/beaver6.1-48.png"
       inkscape:export-xdpi="90"
       inkscape:export-ydpi="90" />
    <path
       style="fill:url(#linearGradient4027);fill-opacity:1;fill-rule:evenodd;stroke:#878787;stroke-width:1;stroke-linecap:round;stroke-linejoin:miter;stroke-miterlimit:4;stroke-dasharray:none;stroke-dashoffset:0;stroke-opacity:1;display:inline"
       d="M 20.456847,26.95928 L 24.731057,26.852501 C 26.255117,26.852501 27.487567,27.10395 27.235447,28.31125 C 25.585817,32.44113 24.039977,38.36399 25.258027,43.06412 C 25.407397,43.558601 25.099697,43.697931 24.233297,43.697931 L 19.782547,43.4128 C 18.998347,43.4128 18.606167,43.44727 18.449717,43.02327 C 17.964487,40.14084 16.496267,33.40329 18.774517,28.06163 C 18.833197,27.780991 18.932787,26.95928 20.456847,26.95928 z "
       id="path4023"
       sodipodi:nodetypes="ccccccccc"
       inkscape:export-filename="/home/vinay/beaver/icons/beaver6.1-48.png"
       inkscape:export-xdpi="90"
       inkscape:export-ydpi="90" />
    <path
       style="opacity:1;fill:#674139;fill-opacity:1;fill-rule:evenodd;stroke:#4d302a;stroke-width:1;stroke-linecap:round;stroke-linejoin:miter;stroke-miterlimit:4;stroke-dasharray:none;stroke-dashoffset:0;stroke-opacity:1;display:inline"
       d="M 9.8705575,8.3388702 C 10.963157,11.14264 11.290977,11.92729 10.657737,13.1801 C 10.023598,14.43468 9.1649376,14.46952 5.6933076,15.17005 C 3.0171276,15.71007 0.42941772,13.35863 2.9459576,9.2023998 C 5.4430376,5.0783102 8.7898676,5.5656302 9.8705575,8.3388702 z "
       id="path4034"
       sodipodi:nodetypes="czszz"
       inkscape:export-filename="/home/vinay/beaver/icons/beaver6.1-48.png"
       inkscape:export-xdpi="90"
       inkscape:export-ydpi="90" />
    <path
       style="opacity:1;fill:#674139;fill-opacity:1;fill-rule:evenodd;stroke:#4d312b;stroke-width:1;stroke-linecap:round;stroke-linejoin:miter;stroke-miterlimit:4;stroke-dasharray:none;stroke-dashoffset:0;stroke-opacity:1;display:inline"
       d="M 39.043787,8.0952402 C 37.907647,10.68127 37.561467,11.15351 38.036967,12.47428 C 38.513147,13.79692 37.062997,13.52667 40.947837,15.46993 C 44.544427,17.26901 47.817237,13.94136 45.827127,9.5089098 C 43.852387,5.1107302 40.147717,5.5825202 39.043787,8.0952402 z "
       id="path4036"
       sodipodi:nodetypes="czszz"
       inkscape:export-filename="/home/vinay/beaver/icons/beaver6.1-48.png"
       inkscape:export-xdpi="90"
       inkscape:export-ydpi="90" />
    <path
       style="opacity:1;fill:url(#radialGradient3985);fill-opacity:1;fill-rule:evenodd;stroke:#4d312b;stroke-width:1;stroke-linecap:round;stroke-linejoin:round;stroke-miterlimit:4;stroke-dasharray:none;stroke-dashoffset:0;stroke-opacity:1;display:inline"
       d="M 22.547987,7.6721502 C 23.271527,8.8759002 25.940897,7.4409702 26.376137,7.2517402 C 26.811377,7.0625102 30.711347,4.5629302 31.943907,5.0334702 C 29.379497,8.0965102 34.630157,8.2346502 36.826967,10.67468 C 38.229887,12.23292 39.376887,11.84015 40.265847,18.0579 C 41.172007,24.39588 35.152087,29.79492 30.301457,30.75654 C 25.450827,31.71816 19.628917,31.777051 18.389247,26.43063 C 16.204047,31.870191 11.094697,31.271711 9.1688776,30.00892 C 7.2820776,28.771701 5.2467176,24.175811 5.8048976,20.370531 C 6.9194776,12.77205 15.161127,9.9837995 17.772827,8.6704102 C 19.827917,7.6610102 20.327467,5.7120802 22.802447,4.8299702 C 23.488917,4.4390102 21.824447,6.4684002 22.547987,7.6721502 z "
       id="path3983"
       sodipodi:nodetypes="cccszscszccs"
       inkscape:export-filename="/home/vinay/beaver/icons/beaver6.1-48.png"
       inkscape:export-xdpi="90"
       inkscape:export-ydpi="90" />
    <path
       transform="matrix(0.1562069,0,0,0.1562069,-32.457573,2.3686802)"
       d="M 323.79097 71.260056 A 40.012192 40.012192 0 1 1  243.76659,71.260056 A 40.012192 40.012192 0 1 1  323.79097 71.260056 z"
       sodipodi:ry="40.012192"
       sodipodi:rx="40.012192"
       sodipodi:cy="71.260056"
       sodipodi:cx="283.77878"
       id="path4046"
       style="opacity:1;fill:#ffffff;fill-opacity:1;fill-rule:evenodd;stroke:#878787;stroke-width:6.40176582;stroke-linecap:round;stroke-linejoin:miter;stroke-miterlimit:4;stroke-dasharray:none;stroke-dashoffset:0;stroke-opacity:1;display:inline"
       sodipodi:type="arc"
       inkscape:export-filename="/home/vinay/beaver/icons/beaver6.1-48.png"
       inkscape:export-xdpi="90"
       inkscape:export-ydpi="90" />
    <path
       sodipodi:type="arc"
       style="opacity:1;fill:#ffffff;fill-opacity:1;fill-rule:evenodd;stroke:#878787;stroke-width:6.40176582;stroke-linecap:round;stroke-linejoin:miter;stroke-miterlimit:4;stroke-dasharray:none;stroke-dashoffset:0;stroke-opacity:1;display:inline"
       id="path4048"
       sodipodi:cx="283.77878"
       sodipodi:cy="71.260056"
       sodipodi:rx="40.012192"
       sodipodi:ry="40.012192"
       d="M 323.79097 71.260056 A 40.012192 40.012192 0 1 1  243.76659,71.260056 A 40.012192 40.012192 0 1 1  323.79097 71.260056 z"
       transform="matrix(0.1562069,0,0,0.1562069,-9.6955126,2.3686802)"
       inkscape:export-filename="/home/vinay/beaver/icons/beaver6.1-48.png"
       inkscape:export-xdpi="90"
       inkscape:export-ydpi="90" />
    <path
       sodipodi:type="arc"
       style="opacity:1;fill:#000000;fill-opacity:1;fill-rule:evenodd;stroke:#000000;stroke-width:7.26900005;stroke-linecap:round;stroke-linejoin:miter;stroke-miterlimit:4;stroke-dasharray:none;stroke-dashoffset:0;stroke-opacity:1;display:inline"
       id="path4052"
       sodipodi:cx="283.77878"
       sodipodi:cy="71.260056"
       sodipodi:rx="40.012192"
       sodipodi:ry="40.012192"
       d="M 323.79097 71.260056 A 40.012192 40.012192 0 1 1  243.76659,71.260056 A 40.012192 40.012192 0 1 1  323.79097 71.260056 z"
       transform="matrix(9.3972361e-2,0,0,9.3972361e-2,7.0002076,8.5687602)"
       inkscape:export-filename="/home/vinay/beaver/icons/beaver6.1-48.png"
       inkscape:export-xdpi="90"
       inkscape:export-ydpi="90" />
    <path
       style="fill:url(#radialGradient3432);fill-opacity:1;fill-rule:evenodd;stroke:none;stroke-width:0.85091341;stroke-linecap:round;stroke-linejoin:miter;stroke-miterlimit:4;stroke-dasharray:none;stroke-dashoffset:0;stroke-opacity:1;display:inline"
       d="M 26.919227,23.001711 C 28.401447,26.83519 18.948287,28.23434 18.482847,25.336741 C 16.853877,28.11204 11.131547,25.73223 12.680737,23.001711 C 14.172857,20.37179 19.775667,18.151881 21.688727,18.2998 C 23.525977,18.441841 25.481587,19.2835 26.919227,23.001711 z "
       id="path4056"
       sodipodi:nodetypes="cczzz"
       inkscape:export-filename="/home/vinay/beaver/icons/beaver6.1-48.png"
       inkscape:export-xdpi="90"
       inkscape:export-ydpi="90" />
    <path
       sodipodi:type="arc"
       style="opacity:1;fill:#000000;fill-opacity:1;fill-rule:evenodd;stroke:#000000;stroke-width:7.26900005;stroke-linecap:round;stroke-linejoin:miter;stroke-miterlimit:4;stroke-dasharray:none;stroke-dashoffset:0;stroke-opacity:1;display:inline"
       id="path3322"
       sodipodi:cx="283.77878"
       sodipodi:cy="71.260056"
       sodipodi:rx="40.012192"
       sodipodi:ry="40.012192"
       d="M 323.79097 71.260056 A 40.012192 40.012192 0 1 1  243.76659,71.260056 A 40.012192 40.012192 0 1 1  323.79097 71.260056 z"
       transform="matrix(9.3972361e-2,0,0,9.3972361e-2,-15.819276,8.5457059)"
       inkscape:export-filename="/home/vinay/beaver/icons/beaver6.1-48.png"
       inkscape:export-xdpi="90"
       inkscape:export-ydpi="90" />
  </g>
</svg>
